<?xml version="1.0" encoding="utf-8"?>
<!-- Generator: Adobe Illustrator 24.1.0, SVG Export Plug-In . SVG Version: 6.00 Build 0)  -->
<svg version="1.1" id="Ebene_1" xmlns="http://www.w3.org/2000/svg" xmlns:xlink="http://www.w3.org/1999/xlink" x="0px" y="0px"
	 viewBox="0 0 166.1 138" style="enable-background:new 0 0 166.1 138;" xml:space="preserve">
<style type="text/css">
	.st0{fill:#333333;}
	.st1{opacity:0.5;fill:#333333;enable-background:new    ;}
	.st2{fill:none;stroke:#333333;stroke-width:3;stroke-miterlimit:10;}
</style>
<g id="Ebene_2_1_">
	<g id="Ebene_1-2">
		<polygon class="st0" points="41.7,83.4 41.7,83.4 41.7,83.4 		"/>
		<polygon class="st1" points="41.7,83.4 41.7,83.4 41.7,83.4 		"/>
		<path class="st1" d="M31.3,92.9L31.3,92.9C31.4,92.9,31.3,92.9,31.3,92.9z"/>
		<path class="st1" d="M31.3,92.9L31.3,92.9C31.4,92.9,31.3,92.9,31.3,92.9z"/>
		<path class="st0" d="M140.4,77.8c-0.5-1-1.2-1.9-2-2.7c-0.5-0.6-1.1-1.1-1.7-1.6c-2-1.6-4.3-2.9-6.8-3.6c-3.8-1.3-7.9-2-11.9-2.1
			v-0.5c3.5,0,7-0.7,10.3-1.8c2.8-0.9,5.4-2.5,7.4-4.6c2-2.2,3-5.2,2.9-8.2c0-4.9-2.2-8.8-6.7-11.9c-4.5-3-11.5-4.5-21-4.5H85.6v1.4
			l5.6,1.4v60l-5.6,1.4v1.4h27.2c10.2,0,17.7-1.6,22.2-4.7c4.4-2.9,7-7.8,6.8-13.1C141.9,82,141.4,79.8,140.4,77.8z M106.7,38.7h4.3
			c2.1,0,4.1,0.6,5.8,1.8c1.8,1.3,3.3,3,4.3,5c1.1,2.3,1.7,4.8,1.6,7.3c0,2.4-0.5,4.8-1.6,7c-1,2-2.5,3.7-4.3,4.9
			c-1.7,1.1-3.7,1.7-5.8,1.7h-4.2L106.7,38.7z M122.3,95.5c-2.4,2.7-5.9,4.2-9.5,4.1h-6.1V68.7h6.1c3.6-0.1,7.1,1.4,9.5,4.1
			c0.9,1,1.6,2.1,2.1,3.3c0.5,1.2,0.9,2.4,1.1,3.7c0.3,1.4,0.4,2.9,0.4,4.3C126,89,124.8,92.8,122.3,95.5z"/>
		<path class="st0" d="M75.3,83.2c0,3.1-0.9,6.1-2.5,8.8c-0.6,1-1.4,2-2.2,2.9c-1.3,1.4-2.7,2.7-4.3,3.7c-2.5,1.6-5.4,2.4-8.4,2.4
			c-5.3,0-9.5-2.4-12.6-7.1l-0.2-0.2c-1.8-3.2-3-6.7-3.6-10.3l0,0c-0.8-4.7-1.1-9.5-1.1-14.2c0-11.3,1.4-19.4,4.3-24.4
			s6.4-7.5,10.7-7.5c2.7,0,5.4,0.8,7.7,2.3c2.2,1.6,4.1,3.6,5.6,5.9c1.7,2.5,2.9,5.3,3.7,8.2h3.8V35.9h-2.3
			c-0.1,0.1-0.8,0.5-1.9,1.3c-1.3,1.1-2.4,2.4-3.3,3.8c-1.2-1.2-2.6-2.2-4.1-3c-3.3-2-7-3-10.8-3.1c-5.4-0.1-10.8,1.3-15.5,4
			c-4.6,2.8-8.2,6.9-10.4,11.7c-2.5,5.1-3.7,11.3-3.7,18.5c0,7,1.1,12.9,3.4,17.8c1,2.1,2.2,4.1,3.7,5.9l0,0c0.4,0.5,0.8,1,1.3,1.5
			c5.6,5.9,13.4,8.9,23.4,8.9c3.8,0.1,7.6-0.9,10.9-2.8c2.6-1.4,4.8-3.4,6.6-5.8c0.4-0.5,0.8-1.1,1.2-1.7c1.9-3,2.9-6.5,2.9-10
			L75.3,83.2z"/>
		<polyline class="st2" points="40,1 1,1 1,40.3 		"/>
		<polyline class="st2" points="126.1,137 165.1,137 165.1,98.3 		"/>
	</g>
</g>
</svg>
